%!PS-Adobe-3.0
%%DocumentNeededResources: font Helvetica
%%+ font Helvetica-Bold
%%+ font Helvetica-Oblique
%%+ font Helvetica-BoldOblique
%%+ font Symbol
%%DocumentMedia: letter 612 792 0 () ()
%%Title: R Graphics Output
%%Creator: R Software
%%Pages: (atend)
%%Orientation: Portrait
%%BoundingBox: 18 126 594 666
%%EndComments
%%BeginProlog
/bp  { gs sRGB gs } def
% begin .ps.prolog
/gs  { gsave } bind def
/gr  { grestore } bind def
/ep  { showpage gr gr } bind def
/m   { moveto } bind def
/l  { rlineto } bind def
/np  { newpath } bind def
/cp  { closepath } bind def
/f   { fill } bind def
/o   { stroke } bind def
/c   { newpath 0 360 arc } bind def
/r   { 4 2 roll moveto 1 copy 3 -1 roll exch 0 exch rlineto 0 rlineto -1 mul 0 exch rlineto closepath } bind def
/p1  { stroke } bind def
/p2  { gsave bg fill grestore newpath } bind def
/p3  { gsave bg fill grestore stroke } bind def
/p6  { gsave bg eofill grestore newpath } bind def
/p7  { gsave bg eofill grestore stroke } bind def
/t   { 5 -2 roll moveto gsave rotate
       1 index stringwidth pop
       mul neg 0 rmoveto show grestore } bind def
/ta  { 4 -2 roll moveto gsave rotate show } bind def
/tb  { 2 -1 roll 0 rmoveto show } bind def
/cl  { grestore gsave newpath 3 index 3 index moveto 1 index
       4 -1 roll lineto  exch 1 index lineto lineto
       closepath clip newpath } bind def
/rgb { setrgbcolor } bind def
/s   { scalefont setfont } bind def
% end   .ps.prolog
/sRGB { [ /CIEBasedABC
          << /DecodeLMN
               [ { dup 0.03928 le
                        {12.92321 div}
                        {0.055 add 1.055 div 2.4 exp }
                     ifelse
                 } bind dup dup
               ]
             /MatrixLMN [0.412457 0.212673 0.019334
                         0.357576 0.715152 0.119192
                         0.180437 0.072175 0.950301]
             /WhitePoint [0.9505 1.0 1.0890]
           >>
         ] setcolorspace } bind def
/srgb { setcolor } bind def
%%IncludeResource: font Helvetica
/Helvetica findfont
dup length dict begin
  {1 index /FID ne {def} {pop pop} ifelse} forall
  /Encoding ISOLatin1Encoding def
  currentdict
  end
/Font1 exch definefont pop
%%IncludeResource: font Helvetica-Bold
/Helvetica-Bold findfont
dup length dict begin
  {1 index /FID ne {def} {pop pop} ifelse} forall
  /Encoding ISOLatin1Encoding def
  currentdict
  end
/Font2 exch definefont pop
%%IncludeResource: font Helvetica-Oblique
/Helvetica-Oblique findfont
dup length dict begin
  {1 index /FID ne {def} {pop pop} ifelse} forall
  /Encoding ISOLatin1Encoding def
  currentdict
  end
/Font3 exch definefont pop
%%IncludeResource: font Helvetica-BoldOblique
/Helvetica-BoldOblique findfont
dup length dict begin
  {1 index /FID ne {def} {pop pop} ifelse} forall
  /Encoding ISOLatin1Encoding def
  currentdict
  end
/Font4 exch definefont pop
%%IncludeResource: font Symbol
/Symbol findfont
dup length dict begin
  {1 index /FID ne {def} {pop pop} ifelse} forall
  currentdict
  end
/Font5 exch definefont pop
%%EndProlog
%%Page: 1 1
bp
77.04 199.44 563.76 606.96 cl
/bg { 0 0 0 srgb } def
0 0 0 srgb
0.75 setlinewidth
[] 0 setdash
1 setlinecap
1 setlinejoin
10.00 setmiterlimit
95.07 214.53 3.37 c p3
145.14 229.87 3.37 c p3
195.21 263.97 3.37 c p3
245.29 276.01 3.37 c p3
295.36 317.22 3.37 c p3
345.44 365.23 3.37 c p3
395.51 427.50 3.37 c p3
445.59 465.69 3.37 c p3
495.66 541.32 3.37 c p3
545.73 591.87 3.37 c p3
18.00 126.00 594.00 666.00 cl
0 0 0 srgb
0.75 setlinewidth
[] 0 setdash
1 setlinecap
1 setlinejoin
10.00 setmiterlimit
np
145.14 199.44 m
400.59 0 l
o
np
145.14 199.44 m
0 -7.20 l
o
np
245.29 199.44 m
0 -7.20 l
o
np
345.44 199.44 m
0 -7.20 l
o
np
445.59 199.44 m
0 -7.20 l
o
np
545.73 199.44 m
0 -7.20 l
o
/Font1 findfont 18 s
145.14 173.52 (1000) .5 0 t
245.29 173.52 (2000) .5 0 t
345.44 173.52 (3000) .5 0 t
445.59 173.52 (4000) .5 0 t
545.73 173.52 (5000) .5 0 t
np
77.04 202.73 m
0 397.40 l
o
np
77.04 202.73 m
-7.20 0 l
o
np
77.04 302.08 m
-7.20 0 l
o
np
77.04 401.43 m
-7.20 0 l
o
np
77.04 500.78 m
-7.20 0 l
o
np
77.04 600.13 m
-7.20 0 l
o
59.76 202.73 (0) .5 90 t
59.76 302.08 (5) .5 90 t
59.76 401.43 (10) .5 90 t
59.76 500.78 (15) .5 90 t
59.76 600.13 (20) .5 90 t
np
77.04 199.44 m
486.72 0 l
0 407.52 l
-486.72 0 l
0 -407.52 l
o
18.00 126.00 594.00 666.00 cl
/Font2 findfont 18 s
0 0 0 srgb
169.87 640.82 (Expected n) 0 ta
-0.180 (umber of LB) tb
-0.180 (UG') tb
-1.080 (s within) tb gr
157.85 619.22 ( the ne) 0 ta
-0.270 (xt T time steps, 2 hid) tb
-0.180 (den states) tb gr
/Font1 findfont 18 s
320.40 144.72 (time steps t) .5 0 t
30.96 327.66 (Expected #LB) 90 ta
-0.180 (UGS) tb gr
77.04 199.44 563.76 606.96 cl
0 0 0 srgb
1.50 setlinewidth
[] 0 setdash
1 setlinecap
1 setlinejoin
10.00 setmiterlimit
np
95.07 214.53 m
50.07 15.34 l
50.07 34.10 l
50.08 12.04 l
50.07 41.21 l
50.08 48.01 l
50.07 62.27 l
50.08 38.19 l
50.07 75.63 l
50.07 50.55 l
o
0.8275 0.8275 0.8275 srgb
0.75 setlinewidth
[ 0.00 3.00] 0 setdash
np
77.04 202.73 m
486.72 0 l
o
np
77.04 222.60 m
486.72 0 l
o
np
77.04 242.47 m
486.72 0 l
o
np
77.04 262.34 m
486.72 0 l
o
np
77.04 282.21 m
486.72 0 l
o
np
77.04 302.08 m
486.72 0 l
o
np
77.04 321.95 m
486.72 0 l
o
np
77.04 341.82 m
486.72 0 l
o
np
77.04 361.69 m
486.72 0 l
o
np
77.04 381.56 m
486.72 0 l
o
np
77.04 401.43 m
486.72 0 l
o
np
77.04 421.30 m
486.72 0 l
o
np
77.04 441.17 m
486.72 0 l
o
np
77.04 461.04 m
486.72 0 l
o
np
77.04 480.91 m
486.72 0 l
o
np
77.04 500.78 m
486.72 0 l
o
np
77.04 520.65 m
486.72 0 l
o
np
77.04 540.52 m
486.72 0 l
o
np
77.04 560.39 m
486.72 0 l
o
np
77.04 580.26 m
486.72 0 l
o
np
77.04 600.13 m
486.72 0 l
o
ep
%%Trailer
%%Pages: 1
%%EOF
