%!PS-Adobe-3.0
%%DocumentNeededResources: font Helvetica
%%+ font Helvetica-Bold
%%+ font Helvetica-Oblique
%%+ font Helvetica-BoldOblique
%%+ font Symbol
%%DocumentMedia: letter 612 792 0 () ()
%%Title: R Graphics Output
%%Creator: R Software
%%Pages: (atend)
%%Orientation: Portrait
%%BoundingBox: 18 180 594 612
%%EndComments
%%BeginProlog
/bp  { gs sRGB gs } def
% begin .ps.prolog
/gs  { gsave } bind def
/gr  { grestore } bind def
/ep  { showpage gr gr } bind def
/m   { moveto } bind def
/l  { rlineto } bind def
/np  { newpath } bind def
/cp  { closepath } bind def
/f   { fill } bind def
/o   { stroke } bind def
/c   { newpath 0 360 arc } bind def
/r   { 4 2 roll moveto 1 copy 3 -1 roll exch 0 exch rlineto 0 rlineto -1 mul 0 exch rlineto closepath } bind def
/p1  { stroke } bind def
/p2  { gsave bg fill grestore newpath } bind def
/p3  { gsave bg fill grestore stroke } bind def
/p6  { gsave bg eofill grestore newpath } bind def
/p7  { gsave bg eofill grestore stroke } bind def
/t   { 5 -2 roll moveto gsave rotate
       1 index stringwidth pop
       mul neg 0 rmoveto show grestore } bind def
/ta  { 4 -2 roll moveto gsave rotate show } bind def
/tb  { 2 -1 roll 0 rmoveto show } bind def
/cl  { grestore gsave newpath 3 index 3 index moveto 1 index
       4 -1 roll lineto  exch 1 index lineto lineto
       closepath clip newpath } bind def
/rgb { setrgbcolor } bind def
/s   { scalefont setfont } bind def
% end   .ps.prolog
/sRGB { [ /CIEBasedABC
          << /DecodeLMN
               [ { dup 0.03928 le
                        {12.92321 div}
                        {0.055 add 1.055 div 2.4 exp }
                     ifelse
                 } bind dup dup
               ]
             /MatrixLMN [0.412457 0.212673 0.019334
                         0.357576 0.715152 0.119192
                         0.180437 0.072175 0.950301]
             /WhitePoint [0.9505 1.0 1.0890]
           >>
         ] setcolorspace } bind def
/srgb { setcolor } bind def
%%IncludeResource: font Helvetica
/Helvetica findfont
dup length dict begin
  {1 index /FID ne {def} {pop pop} ifelse} forall
  /Encoding ISOLatin1Encoding def
  currentdict
  end
/Font1 exch definefont pop
%%IncludeResource: font Helvetica-Bold
/Helvetica-Bold findfont
dup length dict begin
  {1 index /FID ne {def} {pop pop} ifelse} forall
  /Encoding ISOLatin1Encoding def
  currentdict
  end
/Font2 exch definefont pop
%%IncludeResource: font Helvetica-Oblique
/Helvetica-Oblique findfont
dup length dict begin
  {1 index /FID ne {def} {pop pop} ifelse} forall
  /Encoding ISOLatin1Encoding def
  currentdict
  end
/Font3 exch definefont pop
%%IncludeResource: font Helvetica-BoldOblique
/Helvetica-BoldOblique findfont
dup length dict begin
  {1 index /FID ne {def} {pop pop} ifelse} forall
  /Encoding ISOLatin1Encoding def
  currentdict
  end
/Font4 exch definefont pop
%%IncludeResource: font Symbol
/Symbol findfont
dup length dict begin
  {1 index /FID ne {def} {pop pop} ifelse} forall
  currentdict
  end
/Font5 exch definefont pop
%%EndProlog
%%Page: 1 1
bp
18.00 180.00 594.00 612.00 cl
/bg { 0.7451 0.7451 0.7451 srgb } def
0 0 0 srgb
0.08 setlinewidth
[] 0 setdash
1 setlinecap
1 setlinejoin
10.00 setmiterlimit
95.07 256.41 19.94 296.55 r p3
119.00 256.41 19.94 206.96 r p3
142.93 256.41 19.94 205.39 r p3
166.85 256.41 19.94 48.20 r p3
190.78 256.41 19.94 24.63 r p3
214.71 256.41 19.94 24.63 r p3
238.64 256.41 19.94 13.62 r p3
262.57 256.41 19.94 12.05 r p3
286.50 256.41 19.94 12.05 r p3
310.43 256.41 19.94 11.53 r p3
334.36 256.41 19.94 9.96 r p3
358.29 256.41 19.94 5.24 r p3
382.22 256.41 19.94 4.72 r p3
406.15 256.41 19.94 1.57 r p3
430.08 256.41 19.94 1.57 r p3
454.00 256.41 19.94 1.05 r p3
477.93 256.41 19.94 1.05 r p3
501.86 256.41 19.94 1.05 r p3
525.79 256.41 19.94 0.52 r p3
/Font2 findfont 14 s
179.38 577.45 (lxmds11 function call distrib) 0 ta
-0.280 (ution 01-2013) tb gr
/Font1 findfont 12 s
30.96 363.85 (abs) 90 ta
-0.180 (. frequency) tb gr
/Font1 findfont 18 s
101.81 462.55 (upcall_cache_get_entr) -90.00 ta
0.540 (y) tb gr
125.74 370.10 (lo) -90.00 ta
-0.270 (v_find_pool) tb gr
149.66 253.44 (target_handle_reconnect) 1.10 -90.00 t
173.59 253.44 (target_send_reply_msg) 1.10 -90.00 t
197.52 253.44 (mds_create_objects) 1.10 -90.00 t
221.45 253.44 (mds_finish_open) 1.10 -90.00 t
245.38 253.44 (mds_close) 1.10 -90.00 t
269.31 438.31 (mds_quota_reco) -90.00 ta
-0.270 (v) tb
-0.450 (er) tb
0.540 (y) tb gr
293.24 404.20 (ptlr) -90.00 ta
0.540 (pc_check_req) tb gr
317.17 453.76 (lo) -90.00 ta
-0.270 (v_update_create_set) tb gr
341.10 253.44 (target_handle_connect) 1.10 -90.00 t
365.03 253.44 (alloc_specific) 1.10 -90.00 t
388.96 253.44 (mds_open) 1.10 -90.00 t
412.89 477.93 (impor) -90.00 ta
0.720 (t_select_connection) tb gr
436.82 253.44 (mgs_handle) 1.10 -90.00 t
460.74 253.44 (mds_handle) 1.10 -90.00 t
484.67 253.44 (mds_sendpage) 1.10 -90.00 t
508.60 487.85 (ptlr) -90.00 ta
0.540 (pc_e) tb
-0.540 (xpire_one_request) tb gr
532.53 482.35 (llog_or) -90.00 ta
0.270 (igin_handle_cancel) tb gr
18.00 180.00 594.00 612.00 cl
0 0 0 srgb
0.75 setlinewidth
[] 0 setdash
1 setlinecap
1 setlinejoin
10.00 setmiterlimit
np
77.04 256.41 m
0 261.97 l
o
np
77.04 256.41 m
-7.20 0 l
o
np
77.04 308.80 m
-7.20 0 l
o
np
77.04 361.20 m
-7.20 0 l
o
np
77.04 413.59 m
-7.20 0 l
o
np
77.04 465.98 m
-7.20 0 l
o
np
77.04 518.38 m
-7.20 0 l
o
/Font1 findfont 12 s
59.76 256.41 (0) .5 90 t
59.76 308.80 (100) .5 90 t
59.76 361.20 (200) .5 90 t
59.76 413.59 (300) .5 90 t
59.76 465.98 (400) .5 90 t
59.76 518.38 (500) .5 90 t
ep
%%Trailer
%%Pages: 1
%%EOF
