%!PS-Adobe-3.0
%%DocumentNeededResources: font Helvetica
%%+ font Helvetica-Bold
%%+ font Helvetica-Oblique
%%+ font Helvetica-BoldOblique
%%+ font Symbol
%%DocumentMedia: letter 612 792 0 () ()
%%Title: R Graphics Output
%%Creator: R Software
%%Pages: (atend)
%%Orientation: Portrait
%%BoundingBox: 18 180 594 612
%%EndComments
%%BeginProlog
/bp  { gs sRGB gs } def
% begin .ps.prolog
/gs  { gsave } bind def
/gr  { grestore } bind def
/ep  { showpage gr gr } bind def
/m   { moveto } bind def
/l  { rlineto } bind def
/np  { newpath } bind def
/cp  { closepath } bind def
/f   { fill } bind def
/o   { stroke } bind def
/c   { newpath 0 360 arc } bind def
/r   { 4 2 roll moveto 1 copy 3 -1 roll exch 0 exch rlineto 0 rlineto -1 mul 0 exch rlineto closepath } bind def
/p1  { stroke } bind def
/p2  { gsave bg fill grestore newpath } bind def
/p3  { gsave bg fill grestore stroke } bind def
/p6  { gsave bg eofill grestore newpath } bind def
/p7  { gsave bg eofill grestore stroke } bind def
/t   { 5 -2 roll moveto gsave rotate
       1 index stringwidth pop
       mul neg 0 rmoveto show grestore } bind def
/ta  { 4 -2 roll moveto gsave rotate show } bind def
/tb  { 2 -1 roll 0 rmoveto show } bind def
/cl  { grestore gsave newpath 3 index 3 index moveto 1 index
       4 -1 roll lineto  exch 1 index lineto lineto
       closepath clip newpath } bind def
/rgb { setrgbcolor } bind def
/s   { scalefont setfont } bind def
% end   .ps.prolog
/sRGB { [ /CIEBasedABC
          << /DecodeLMN
               [ { dup 0.03928 le
                        {12.92321 div}
                        {0.055 add 1.055 div 2.4 exp }
                     ifelse
                 } bind dup dup
               ]
             /MatrixLMN [0.412457 0.212673 0.019334
                         0.357576 0.715152 0.119192
                         0.180437 0.072175 0.950301]
             /WhitePoint [0.9505 1.0 1.0890]
           >>
         ] setcolorspace } bind def
/srgb { setcolor } bind def
%%IncludeResource: font Helvetica
/Helvetica findfont
dup length dict begin
  {1 index /FID ne {def} {pop pop} ifelse} forall
  /Encoding ISOLatin1Encoding def
  currentdict
  end
/Font1 exch definefont pop
%%IncludeResource: font Helvetica-Bold
/Helvetica-Bold findfont
dup length dict begin
  {1 index /FID ne {def} {pop pop} ifelse} forall
  /Encoding ISOLatin1Encoding def
  currentdict
  end
/Font2 exch definefont pop
%%IncludeResource: font Helvetica-Oblique
/Helvetica-Oblique findfont
dup length dict begin
  {1 index /FID ne {def} {pop pop} ifelse} forall
  /Encoding ISOLatin1Encoding def
  currentdict
  end
/Font3 exch definefont pop
%%IncludeResource: font Helvetica-BoldOblique
/Helvetica-BoldOblique findfont
dup length dict begin
  {1 index /FID ne {def} {pop pop} ifelse} forall
  /Encoding ISOLatin1Encoding def
  currentdict
  end
/Font4 exch definefont pop
%%IncludeResource: font Symbol
/Symbol findfont
dup length dict begin
  {1 index /FID ne {def} {pop pop} ifelse} forall
  currentdict
  end
/Font5 exch definefont pop
%%EndProlog
%%Page: 1 1
bp
18.00 180.00 594.00 612.00 cl
/bg { 0.7451 0.7451 0.7451 srgb } def
0 0 0 srgb
0.08 setlinewidth
[] 0 setdash
1 setlinecap
1 setlinejoin
10.00 setmiterlimit
95.07 256.41 15.12 296.55 r p3
113.21 256.41 15.12 119.86 r p3
131.36 256.41 15.12 28.26 r p3
149.51 256.41 15.12 24.81 r p3
167.66 256.41 15.12 23.34 r p3
185.80 256.41 15.12 12.14 r p3
203.95 256.41 15.12 11.93 r p3
222.10 256.41 15.12 10.47 r p3
240.25 256.41 15.12 7.54 r p3
258.40 256.41 15.12 3.98 r p3
276.54 256.41 15.12 3.98 r p3
294.69 256.41 15.12 3.66 r p3
312.84 256.41 15.12 3.45 r p3
330.99 256.41 15.12 2.72 r p3
349.13 256.41 15.12 1.67 r p3
367.28 256.41 15.12 1.05 r p3
385.43 256.41 15.12 1.05 r p3
403.58 256.41 15.12 0.73 r p3
421.72 256.41 15.12 0.63 r p3
439.87 256.41 15.12 0.52 r p3
458.02 256.41 15.12 0.21 r p3
476.17 256.41 15.12 0.21 r p3
494.31 256.41 15.12 0.21 r p3
512.46 256.41 15.12 0.21 r p3
530.61 256.41 15.12 0.10 r p3
/Font2 findfont 14 s
179.38 577.45 (lxmds11 function call distrib) 0 ta
-0.280 (ution 04-2013) tb gr
/Font1 findfont 12 s
30.96 363.85 (abs) 90 ta
-0.180 (. frequency) tb gr
/Font1 findfont 18 s
99.40 253.44 (target_handle_reconnect) 1.10 -90.00 t
117.54 370.10 (lo) -90.00 ta
-0.270 (v_find_pool) tb gr
135.69 253.44 (target_send_reply_msg) 1.10 -90.00 t
153.84 462.55 (upcall_cache_get_entr) -90.00 ta
0.540 (y) tb gr
171.99 253.44 (mds_close) 1.10 -90.00 t
190.14 477.93 (impor) -90.00 ta
0.720 (t_select_connection) tb gr
208.28 487.85 (ptlr) -90.00 ta
0.540 (pc_e) tb
-0.540 (xpire_one_request) tb gr
226.43 404.20 (ptlr) -90.00 ta
0.540 (pc_check_req) tb gr
244.58 438.31 (mds_quota_reco) -90.00 ta
-0.270 (v) tb
-0.450 (er) tb
0.540 (y) tb gr
262.73 253.44 (mgs_handle) 1.10 -90.00 t
280.87 253.44 (target_handle_connect) 1.10 -90.00 t
299.02 453.76 (lo) -90.00 ta
-0.270 (v_update_create_set) tb gr
317.17 253.44 (mds_notify) 1.10 -90.00 t
335.32 453.70 (w) -90.00 ta
-0.270 (aiting_locks_callback) tb gr
353.46 253.44 (mds_handle) 1.10 -90.00 t
371.61 253.44 (ldlm_handle_ast_error) 1.10 -90.00 t
389.76 465.81 (ptlr) -90.00 ta
0.540 (pc_impor) tb
0.720 (t_dela) tb
-0.540 (y_req) tb gr
407.91 425.11 (mds_finish_tr) -90.00 ta
-0.180 (ansno) tb gr
426.05 253.44 (mds_sendpage) 1.10 -90.00 t
444.20 482.35 (llog_or) -90.00 ta
0.270 (igin_handle_cancel) tb gr
462.35 431.72 (kib) -90.00 ta
-0.360 (lnd_check_conns) tb gr
480.50 404.20 (kib) -90.00 ta
-0.360 (lnd_check_txs) tb gr
498.65 403.11 (kib) -90.00 ta
-0.360 (lnd_handle_rx) tb gr
516.79 253.44 (ldlm_cancel_handler) 1.10 -90.00 t
534.94 253.44 (ldlm_handle_enqueue) 1.10 -90.00 t
18.00 180.00 594.00 612.00 cl
0 0 0 srgb
0.75 setlinewidth
[] 0 setdash
1 setlinecap
1 setlinejoin
10.00 setmiterlimit
np
77.04 256.41 m
0 261.69 l
o
np
77.04 256.41 m
-7.20 0 l
o
np
77.04 308.74 m
-7.20 0 l
o
np
77.04 361.08 m
-7.20 0 l
o
np
77.04 413.42 m
-7.20 0 l
o
np
77.04 465.76 m
-7.20 0 l
o
np
77.04 518.10 m
-7.20 0 l
o
/Font1 findfont 12 s
59.76 256.41 (0) .5 90 t
59.76 308.74 (500) .5 90 t
59.76 361.08 (1000) .5 90 t
59.76 413.42 (1500) .5 90 t
59.76 465.76 (2000) .5 90 t
59.76 518.10 (2500) .5 90 t
ep
%%Trailer
%%Pages: 1
%%EOF
