%!PS-Adobe-3.0
%%DocumentNeededResources: font Helvetica
%%+ font Helvetica-Bold
%%+ font Helvetica-Oblique
%%+ font Helvetica-BoldOblique
%%+ font Symbol
%%DocumentMedia: letter 612 792 0 () ()
%%Title: R Graphics Output
%%Creator: R Software
%%Pages: (atend)
%%Orientation: Portrait
%%BoundingBox: 18 180 594 612
%%EndComments
%%BeginProlog
/bp  { gs sRGB gs } def
% begin .ps.prolog
/gs  { gsave } bind def
/gr  { grestore } bind def
/ep  { showpage gr gr } bind def
/m   { moveto } bind def
/l  { rlineto } bind def
/np  { newpath } bind def
/cp  { closepath } bind def
/f   { fill } bind def
/o   { stroke } bind def
/c   { newpath 0 360 arc } bind def
/r   { 4 2 roll moveto 1 copy 3 -1 roll exch 0 exch rlineto 0 rlineto -1 mul 0 exch rlineto closepath } bind def
/p1  { stroke } bind def
/p2  { gsave bg fill grestore newpath } bind def
/p3  { gsave bg fill grestore stroke } bind def
/p6  { gsave bg eofill grestore newpath } bind def
/p7  { gsave bg eofill grestore stroke } bind def
/t   { 5 -2 roll moveto gsave rotate
       1 index stringwidth pop
       mul neg 0 rmoveto show grestore } bind def
/ta  { 4 -2 roll moveto gsave rotate show } bind def
/tb  { 2 -1 roll 0 rmoveto show } bind def
/cl  { grestore gsave newpath 3 index 3 index moveto 1 index
       4 -1 roll lineto  exch 1 index lineto lineto
       closepath clip newpath } bind def
/rgb { setrgbcolor } bind def
/s   { scalefont setfont } bind def
% end   .ps.prolog
/sRGB { [ /CIEBasedABC
          << /DecodeLMN
               [ { dup 0.03928 le
                        {12.92321 div}
                        {0.055 add 1.055 div 2.4 exp }
                     ifelse
                 } bind dup dup
               ]
             /MatrixLMN [0.412457 0.212673 0.019334
                         0.357576 0.715152 0.119192
                         0.180437 0.072175 0.950301]
             /WhitePoint [0.9505 1.0 1.0890]
           >>
         ] setcolorspace } bind def
/srgb { setcolor } bind def
%%IncludeResource: font Helvetica
/Helvetica findfont
dup length dict begin
  {1 index /FID ne {def} {pop pop} ifelse} forall
  /Encoding ISOLatin1Encoding def
  currentdict
  end
/Font1 exch definefont pop
%%IncludeResource: font Helvetica-Bold
/Helvetica-Bold findfont
dup length dict begin
  {1 index /FID ne {def} {pop pop} ifelse} forall
  /Encoding ISOLatin1Encoding def
  currentdict
  end
/Font2 exch definefont pop
%%IncludeResource: font Helvetica-Oblique
/Helvetica-Oblique findfont
dup length dict begin
  {1 index /FID ne {def} {pop pop} ifelse} forall
  /Encoding ISOLatin1Encoding def
  currentdict
  end
/Font3 exch definefont pop
%%IncludeResource: font Helvetica-BoldOblique
/Helvetica-BoldOblique findfont
dup length dict begin
  {1 index /FID ne {def} {pop pop} ifelse} forall
  /Encoding ISOLatin1Encoding def
  currentdict
  end
/Font4 exch definefont pop
%%IncludeResource: font Symbol
/Symbol findfont
dup length dict begin
  {1 index /FID ne {def} {pop pop} ifelse} forall
  currentdict
  end
/Font5 exch definefont pop
%%EndProlog
%%Page: 1 1
bp
18.00 180.00 594.00 612.00 cl
/bg { 0.7451 0.7451 0.7451 srgb } def
0 0 0 srgb
0.08 setlinewidth
[] 0 setdash
1 setlinecap
1 setlinejoin
10.00 setmiterlimit
95.07 256.41 12.18 296.55 r p3
109.68 256.41 12.18 270.39 r p3
124.30 256.41 12.18 178.32 r p3
138.92 256.41 12.18 170.08 r p3
153.53 256.41 12.18 44.58 r p3
168.15 256.41 12.18 40.70 r p3
182.76 256.41 12.18 27.14 r p3
197.38 256.41 12.18 15.51 r p3
212.00 256.41 12.18 13.57 r p3
226.61 256.41 12.18 11.63 r p3
241.23 256.41 12.18 11.15 r p3
255.85 256.41 12.18 9.69 r p3
270.46 256.41 12.18 8.24 r p3
285.08 256.41 12.18 7.75 r p3
299.69 256.41 12.18 7.75 r p3
314.31 256.41 12.18 6.78 r p3
328.93 256.41 12.18 5.33 r p3
343.54 256.41 12.18 4.36 r p3
358.16 256.41 12.18 4.36 r p3
372.77 256.41 12.18 3.39 r p3
387.39 256.41 12.18 2.91 r p3
402.01 256.41 12.18 2.91 r p3
416.62 256.41 12.18 0.97 r p3
431.24 256.41 12.18 0.97 r p3
445.86 256.41 12.18 0.97 r p3
460.47 256.41 12.18 0.97 r p3
475.09 256.41 12.18 0.48 r p3
489.70 256.41 12.18 0.48 r p3
504.32 256.41 12.18 0.48 r p3
518.94 256.41 12.18 0.48 r p3
533.55 256.41 12.18 0.48 r p3
/Font2 findfont 14 s
179.38 577.45 (lxmds11 function call distrib) 0 ta
-0.280 (ution 09-2013) tb gr
/Font1 findfont 12 s
30.96 363.85 (abs) 90 ta
-0.180 (. frequency) tb gr
/Font1 findfont 18 s
97.93 253.44 (target_send_reply_msg) 1.10 -90.00 t
112.54 253.44 (mds_close) 1.10 -90.00 t
127.16 253.44 (target_handle_reconnect) 1.10 -90.00 t
141.77 370.10 (lo) -90.00 ta
-0.270 (v_find_pool) tb gr
156.39 404.20 (ptlr) -90.00 ta
0.540 (pc_check_req) tb gr
171.01 253.44 (target_handle_connect) 1.10 -90.00 t
185.62 253.44 (ldlm_handle_enqueue) 1.10 -90.00 t
200.24 453.70 (w) -90.00 ta
-0.270 (aiting_locks_callback) tb gr
214.86 515.35 (ptlr) -90.00 ta
0.540 (pc_ser) tb
0.540 (v) tb
-0.450 (er_handle_request) tb gr
229.47 403.11 (kib) -90.00 ta
-0.360 (lnd_handle_rx) tb gr
244.09 487.85 (ptlr) -90.00 ta
0.540 (pc_e) tb
-0.540 (xpire_one_request) tb gr
258.70 465.80 (qmaster_reco) -90.00 ta
-0.270 (v) tb
-0.450 (er) tb
0.540 (y_main) tb gr
273.32 518.62 (ldlm_e) -90.00 ta
-0.540 (xpired_completion_w) tb
-0.270 (ait) tb gr
287.94 491.14 (ptlr) -90.00 ta
0.540 (pc_at_send_ear) tb
0.270 (ly_reply) tb gr
302.55 503.24 (ptlr) -90.00 ta
0.540 (pc_ser) tb
0.540 (vice_health_check) tb gr
317.17 253.44 (mds_handle) 1.10 -90.00 t
331.79 465.81 (ptlr) -90.00 ta
0.540 (pc_impor) tb
0.720 (t_dela) tb
-0.540 (y_req) tb gr
346.40 477.93 (impor) -90.00 ta
0.720 (t_select_connection) tb gr
361.02 425.11 (mds_finish_tr) -90.00 ta
-0.180 (ansno) tb gr
375.63 482.35 (llog_or) -90.00 ta
0.270 (igin_handle_cancel) tb gr
390.25 453.76 (lo) -90.00 ta
-0.270 (v_update_create_set) tb gr
404.87 438.31 (mds_quota_reco) -90.00 ta
-0.270 (v) tb
-0.450 (er) tb
0.540 (y) tb gr
419.48 253.44 (ldlm_handle_ast_error) 1.10 -90.00 t
434.10 253.44 (llog_cat_cancel_records) 1.10 -90.00 t
448.71 253.44 (llog_cat_id2handle) 1.10 -90.00 t
463.33 253.44 (llog_lvfs_create) 1.10 -90.00 t
477.95 253.44 (ldlm_cancel_handler) 1.10 -90.00 t
492.56 253.44 (ldlm_cli_cancel_list) 1.10 -90.00 t
507.18 253.44 (ldlm_cli_cancel_req) 1.10 -90.00 t
521.80 253.44 (mds_sendpage) 1.10 -90.00 t
536.41 253.44 (mgs_handle) 1.10 -90.00 t
18.00 180.00 594.00 612.00 cl
0 0 0 srgb
0.75 setlinewidth
[] 0 setdash
1 setlinecap
1 setlinejoin
10.00 setmiterlimit
np
77.04 256.41 m
0 290.74 l
o
np
77.04 256.41 m
-7.20 0 l
o
np
77.04 304.86 m
-7.20 0 l
o
np
77.04 353.32 m
-7.20 0 l
o
np
77.04 401.78 m
-7.20 0 l
o
np
77.04 450.23 m
-7.20 0 l
o
np
77.04 498.69 m
-7.20 0 l
o
np
77.04 547.15 m
-7.20 0 l
o
/Font1 findfont 12 s
59.76 256.41 (0) .5 90 t
59.76 304.86 (100) .5 90 t
59.76 353.32 (200) .5 90 t
59.76 401.78 (300) .5 90 t
59.76 450.23 (400) .5 90 t
59.76 498.69 (500) .5 90 t
59.76 547.15 (600) .5 90 t
ep
%%Trailer
%%Pages: 1
%%EOF
