%!PS-Adobe-3.0
%%DocumentNeededResources: font Helvetica
%%+ font Helvetica-Bold
%%+ font Helvetica-Oblique
%%+ font Helvetica-BoldOblique
%%+ font Symbol
%%DocumentMedia: letter 612 792 0 () ()
%%Title: R Graphics Output
%%Creator: R Software
%%Pages: (atend)
%%Orientation: Portrait
%%BoundingBox: 18 180 594 612
%%EndComments
%%BeginProlog
/bp  { gs sRGB gs } def
% begin .ps.prolog
/gs  { gsave } bind def
/gr  { grestore } bind def
/ep  { showpage gr gr } bind def
/m   { moveto } bind def
/l  { rlineto } bind def
/np  { newpath } bind def
/cp  { closepath } bind def
/f   { fill } bind def
/o   { stroke } bind def
/c   { newpath 0 360 arc } bind def
/r   { 4 2 roll moveto 1 copy 3 -1 roll exch 0 exch rlineto 0 rlineto -1 mul 0 exch rlineto closepath } bind def
/p1  { stroke } bind def
/p2  { gsave bg fill grestore newpath } bind def
/p3  { gsave bg fill grestore stroke } bind def
/p6  { gsave bg eofill grestore newpath } bind def
/p7  { gsave bg eofill grestore stroke } bind def
/t   { 5 -2 roll moveto gsave rotate
       1 index stringwidth pop
       mul neg 0 rmoveto show grestore } bind def
/ta  { 4 -2 roll moveto gsave rotate show } bind def
/tb  { 2 -1 roll 0 rmoveto show } bind def
/cl  { grestore gsave newpath 3 index 3 index moveto 1 index
       4 -1 roll lineto  exch 1 index lineto lineto
       closepath clip newpath } bind def
/rgb { setrgbcolor } bind def
/s   { scalefont setfont } bind def
% end   .ps.prolog
/sRGB { [ /CIEBasedABC
          << /DecodeLMN
               [ { dup 0.03928 le
                        {12.92321 div}
                        {0.055 add 1.055 div 2.4 exp }
                     ifelse
                 } bind dup dup
               ]
             /MatrixLMN [0.412457 0.212673 0.019334
                         0.357576 0.715152 0.119192
                         0.180437 0.072175 0.950301]
             /WhitePoint [0.9505 1.0 1.0890]
           >>
         ] setcolorspace } bind def
/srgb { setcolor } bind def
%%IncludeResource: font Helvetica
/Helvetica findfont
dup length dict begin
  {1 index /FID ne {def} {pop pop} ifelse} forall
  /Encoding ISOLatin1Encoding def
  currentdict
  end
/Font1 exch definefont pop
%%IncludeResource: font Helvetica-Bold
/Helvetica-Bold findfont
dup length dict begin
  {1 index /FID ne {def} {pop pop} ifelse} forall
  /Encoding ISOLatin1Encoding def
  currentdict
  end
/Font2 exch definefont pop
%%IncludeResource: font Helvetica-Oblique
/Helvetica-Oblique findfont
dup length dict begin
  {1 index /FID ne {def} {pop pop} ifelse} forall
  /Encoding ISOLatin1Encoding def
  currentdict
  end
/Font3 exch definefont pop
%%IncludeResource: font Helvetica-BoldOblique
/Helvetica-BoldOblique findfont
dup length dict begin
  {1 index /FID ne {def} {pop pop} ifelse} forall
  /Encoding ISOLatin1Encoding def
  currentdict
  end
/Font4 exch definefont pop
%%IncludeResource: font Symbol
/Symbol findfont
dup length dict begin
  {1 index /FID ne {def} {pop pop} ifelse} forall
  currentdict
  end
/Font5 exch definefont pop
%%EndProlog
%%Page: 1 1
bp
18.00 180.00 594.00 612.00 cl
/bg { 0.7451 0.7451 0.7451 srgb } def
0 0 0 srgb
0.08 setlinewidth
[] 0 setdash
1 setlinecap
1 setlinejoin
10.00 setmiterlimit
95.07 256.41 19.94 296.55 r p3
119.00 256.41 19.94 55.28 r p3
142.93 256.41 19.94 52.99 r p3
166.85 256.41 19.94 51.54 r p3
190.78 256.41 19.94 11.43 r p3
214.71 256.41 19.94 9.77 r p3
238.64 256.41 19.94 2.70 r p3
262.57 256.41 19.94 2.08 r p3
286.50 256.41 19.94 1.87 r p3
310.43 256.41 19.94 1.87 r p3
334.36 256.41 19.94 1.04 r p3
358.29 256.41 19.94 1.04 r p3
382.22 256.41 19.94 1.04 r p3
406.15 256.41 19.94 1.04 r p3
430.08 256.41 19.94 0.62 r p3
454.00 256.41 19.94 0.42 r p3
477.93 256.41 19.94 0.21 r p3
501.86 256.41 19.94 0.21 r p3
525.79 256.41 19.94 0.21 r p3
/Font2 findfont 14 s
179.38 577.45 (lxmds11 function call distrib) 0 ta
-0.280 (ution 08-2013) tb gr
/Font1 findfont 12 s
30.96 363.85 (abs) 90 ta
-0.180 (. frequency) tb gr
/Font1 findfont 18 s
101.81 253.44 (target_handle_reconnect) 1.10 -90.00 t
125.74 253.44 (target_send_reply_msg) 1.10 -90.00 t
149.66 370.10 (lo) -90.00 ta
-0.270 (v_find_pool) tb gr
173.59 253.44 (mds_close) 1.10 -90.00 t
197.52 253.44 (target_handle_connect) 1.10 -90.00 t
221.45 404.20 (ptlr) -90.00 ta
0.540 (pc_check_req) tb gr
245.38 253.44 (mds_handle) 1.10 -90.00 t
269.31 453.70 (w) -90.00 ta
-0.270 (aiting_locks_callback) tb gr
293.24 491.14 (ptlr) -90.00 ta
0.540 (pc_at_send_ear) tb
0.270 (ly_reply) tb gr
317.17 515.35 (ptlr) -90.00 ta
0.540 (pc_ser) tb
0.540 (v) tb
-0.450 (er_handle_request) tb gr
341.10 403.11 (kib) -90.00 ta
-0.360 (lnd_handle_rx) tb gr
365.03 482.35 (llog_or) -90.00 ta
0.270 (igin_handle_cancel) tb gr
388.96 425.11 (mds_finish_tr) -90.00 ta
-0.180 (ansno) tb gr
412.89 487.85 (ptlr) -90.00 ta
0.540 (pc_e) tb
-0.540 (xpire_one_request) tb gr
436.82 253.44 (ldlm_handle_enqueue) 1.10 -90.00 t
460.74 253.44 (mds_sendpage) 1.10 -90.00 t
484.67 253.44 (ldlm_cancel_handler) 1.10 -90.00 t
508.60 253.44 (mds_steal_ack_locks) 1.10 -90.00 t
532.53 492.23 (ptlr) -90.00 ta
0.540 (pc_ser) tb
0.540 (v) tb
-0.450 (er_handle_reply) tb gr
18.00 180.00 594.00 612.00 cl
0 0 0 srgb
0.75 setlinewidth
[] 0 setdash
1 setlinecap
1 setlinejoin
10.00 setmiterlimit
np
77.04 256.41 m
0 290.94 l
o
np
77.04 256.41 m
-7.20 0 l
o
np
77.04 297.97 m
-7.20 0 l
o
np
77.04 339.53 m
-7.20 0 l
o
np
77.04 381.10 m
-7.20 0 l
o
np
77.04 422.66 m
-7.20 0 l
o
np
77.04 464.22 m
-7.20 0 l
o
np
77.04 505.79 m
-7.20 0 l
o
np
77.04 547.35 m
-7.20 0 l
o
/Font1 findfont 12 s
59.76 256.41 (0) .5 90 t
59.76 297.97 (200) .5 90 t
59.76 339.53 (400) .5 90 t
59.76 381.10 (600) .5 90 t
59.76 422.66 (800) .5 90 t
59.76 464.22 (1000) .5 90 t
59.76 505.79 (1200) .5 90 t
59.76 547.35 (1400) .5 90 t
ep
%%Trailer
%%Pages: 1
%%EOF
