%!PS-Adobe-3.0
%%DocumentNeededResources: font Helvetica
%%+ font Helvetica-Bold
%%+ font Helvetica-Oblique
%%+ font Helvetica-BoldOblique
%%+ font Symbol
%%DocumentMedia: letter 612 792 0 () ()
%%Title: R Graphics Output
%%Creator: R Software
%%Pages: (atend)
%%Orientation: Portrait
%%BoundingBox: 18 180 594 612
%%EndComments
%%BeginProlog
/bp  { gs sRGB gs } def
% begin .ps.prolog
/gs  { gsave } bind def
/gr  { grestore } bind def
/ep  { showpage gr gr } bind def
/m   { moveto } bind def
/l  { rlineto } bind def
/np  { newpath } bind def
/cp  { closepath } bind def
/f   { fill } bind def
/o   { stroke } bind def
/c   { newpath 0 360 arc } bind def
/r   { 4 2 roll moveto 1 copy 3 -1 roll exch 0 exch rlineto 0 rlineto -1 mul 0 exch rlineto closepath } bind def
/p1  { stroke } bind def
/p2  { gsave bg fill grestore newpath } bind def
/p3  { gsave bg fill grestore stroke } bind def
/p6  { gsave bg eofill grestore newpath } bind def
/p7  { gsave bg eofill grestore stroke } bind def
/t   { 5 -2 roll moveto gsave rotate
       1 index stringwidth pop
       mul neg 0 rmoveto show grestore } bind def
/ta  { 4 -2 roll moveto gsave rotate show } bind def
/tb  { 2 -1 roll 0 rmoveto show } bind def
/cl  { grestore gsave newpath 3 index 3 index moveto 1 index
       4 -1 roll lineto  exch 1 index lineto lineto
       closepath clip newpath } bind def
/rgb { setrgbcolor } bind def
/s   { scalefont setfont } bind def
% end   .ps.prolog
/sRGB { [ /CIEBasedABC
          << /DecodeLMN
               [ { dup 0.03928 le
                        {12.92321 div}
                        {0.055 add 1.055 div 2.4 exp }
                     ifelse
                 } bind dup dup
               ]
             /MatrixLMN [0.412457 0.212673 0.019334
                         0.357576 0.715152 0.119192
                         0.180437 0.072175 0.950301]
             /WhitePoint [0.9505 1.0 1.0890]
           >>
         ] setcolorspace } bind def
/srgb { setcolor } bind def
%%IncludeResource: font Helvetica
/Helvetica findfont
dup length dict begin
  {1 index /FID ne {def} {pop pop} ifelse} forall
  /Encoding ISOLatin1Encoding def
  currentdict
  end
/Font1 exch definefont pop
%%IncludeResource: font Helvetica-Bold
/Helvetica-Bold findfont
dup length dict begin
  {1 index /FID ne {def} {pop pop} ifelse} forall
  /Encoding ISOLatin1Encoding def
  currentdict
  end
/Font2 exch definefont pop
%%IncludeResource: font Helvetica-Oblique
/Helvetica-Oblique findfont
dup length dict begin
  {1 index /FID ne {def} {pop pop} ifelse} forall
  /Encoding ISOLatin1Encoding def
  currentdict
  end
/Font3 exch definefont pop
%%IncludeResource: font Helvetica-BoldOblique
/Helvetica-BoldOblique findfont
dup length dict begin
  {1 index /FID ne {def} {pop pop} ifelse} forall
  /Encoding ISOLatin1Encoding def
  currentdict
  end
/Font4 exch definefont pop
%%IncludeResource: font Symbol
/Symbol findfont
dup length dict begin
  {1 index /FID ne {def} {pop pop} ifelse} forall
  currentdict
  end
/Font5 exch definefont pop
%%EndProlog
%%Page: 1 1
bp
18.00 180.00 594.00 612.00 cl
/bg { 0.7451 0.7451 0.7451 srgb } def
0 0 0 srgb
0.08 setlinewidth
[] 0 setdash
1 setlinecap
1 setlinejoin
10.00 setmiterlimit
95.07 256.41 13.49 296.55 r p3
111.26 256.41 13.49 110.66 r p3
127.45 256.41 13.49 99.26 r p3
143.64 256.41 13.49 46.08 r p3
159.83 256.41 13.49 25.49 r p3
176.02 256.41 13.49 19.97 r p3
192.22 256.41 13.49 11.76 r p3
208.41 256.41 13.49 10.54 r p3
224.60 256.41 13.49 6.74 r p3
240.79 256.41 13.49 5.51 r p3
256.98 256.41 13.49 2.94 r p3
273.17 256.41 13.49 2.94 r p3
289.37 256.41 13.49 2.70 r p3
305.56 256.41 13.49 2.45 r p3
321.75 256.41 13.49 2.21 r p3
337.94 256.41 13.49 1.47 r p3
354.13 256.41 13.49 1.23 r p3
370.32 256.41 13.49 1.23 r p3
386.52 256.41 13.49 0.98 r p3
402.71 256.41 13.49 0.61 r p3
418.90 256.41 13.49 0.61 r p3
435.09 256.41 13.49 0.61 r p3
451.28 256.41 13.49 0.49 r p3
467.47 256.41 13.49 0.49 r p3
483.67 256.41 13.49 0.37 r p3
499.86 256.41 13.49 0.25 r p3
516.05 256.41 13.49 0.25 r p3
532.24 256.41 13.49 0.12 r p3
/Font2 findfont 14 s
179.38 577.45 (lxmds11 function call distrib) 0 ta
-0.280 (ution 11-2013) tb gr
/Font1 findfont 12 s
30.96 363.85 (abs) 90 ta
-0.180 (. frequency) tb gr
/Font1 findfont 18 s
98.58 370.10 (lo) -90.00 ta
-0.270 (v_find_pool) tb gr
114.77 253.44 (target_send_reply_msg) 1.10 -90.00 t
130.97 253.44 (mds_close) 1.10 -90.00 t
147.16 253.44 (target_handle_reconnect) 1.10 -90.00 t
163.35 253.44 (target_handle_connect) 1.10 -90.00 t
179.54 404.20 (ptlr) -90.00 ta
0.540 (pc_check_req) tb gr
195.73 253.44 (mgs_handle) 1.10 -90.00 t
211.92 453.70 (w) -90.00 ta
-0.270 (aiting_locks_callback) tb gr
228.12 425.11 (mds_finish_tr) -90.00 ta
-0.180 (ansno) tb gr
244.31 487.85 (ptlr) -90.00 ta
0.540 (pc_e) tb
-0.540 (xpire_one_request) tb gr
260.50 253.44 (ldlm_lock_put) 1.10 -90.00 t
276.69 253.44 (mds_handle) 1.10 -90.00 t
292.88 477.93 (impor) -90.00 ta
0.720 (t_select_connection) tb gr
309.07 253.44 (ldlm_handle_enqueue) 1.10 -90.00 t
325.26 518.62 (ldlm_e) -90.00 ta
-0.540 (xpired_completion_w) tb
-0.270 (ait) tb gr
341.46 491.14 (ptlr) -90.00 ta
0.540 (pc_at_send_ear) tb
0.270 (ly_reply) tb gr
357.65 403.11 (kib) -90.00 ta
-0.360 (lnd_handle_rx) tb gr
373.84 515.35 (ptlr) -90.00 ta
0.540 (pc_ser) tb
0.540 (v) tb
-0.450 (er_handle_request) tb gr
390.03 253.44 (ldlm_handle_ast_error) 1.10 -90.00 t
406.22 253.44 (ldlm_cancel_handler) 1.10 -90.00 t
422.41 253.44 (mds_sendpage) 1.10 -90.00 t
438.61 465.81 (ptlr) -90.00 ta
0.540 (pc_impor) tb
0.720 (t_dela) tb
-0.540 (y_req) tb gr
454.80 384.42 (nid_e) -90.00 ta
-0.540 (xpor) tb
0.720 (t_put) tb gr
470.99 465.80 (qmaster_reco) -90.00 ta
-0.270 (v) tb
-0.450 (er) tb
0.540 (y_main) tb gr
487.18 438.31 (mds_quota_reco) -90.00 ta
-0.270 (v) tb
-0.450 (er) tb
0.540 (y) tb gr
503.37 253.44 (class_disconnect) 1.10 -90.00 t
519.56 253.44 (mds_commit_cb) 1.10 -90.00 t
535.76 482.35 (llog_or) -90.00 ta
0.270 (igin_handle_cancel) tb gr
18.00 180.00 594.00 612.00 cl
0 0 0 srgb
0.75 setlinewidth
[] 0 setdash
1 setlinecap
1 setlinejoin
10.00 setmiterlimit
np
77.04 256.41 m
0 245.08 l
o
np
77.04 256.41 m
-7.20 0 l
o
np
77.04 317.68 m
-7.20 0 l
o
np
77.04 378.95 m
-7.20 0 l
o
np
77.04 440.22 m
-7.20 0 l
o
np
77.04 501.49 m
-7.20 0 l
o
/Font1 findfont 12 s
59.76 256.41 (0) .5 90 t
59.76 317.68 (500) .5 90 t
59.76 378.95 (1000) .5 90 t
59.76 440.22 (1500) .5 90 t
59.76 501.49 (2000) .5 90 t
ep
%%Trailer
%%Pages: 1
%%EOF
