%!PS-Adobe-3.0
%%DocumentNeededResources: font Helvetica
%%+ font Helvetica-Bold
%%+ font Helvetica-Oblique
%%+ font Helvetica-BoldOblique
%%+ font Symbol
%%DocumentMedia: letter 612 792 0 () ()
%%Title: R Graphics Output
%%Creator: R Software
%%Pages: (atend)
%%Orientation: Portrait
%%BoundingBox: 18 180 594 612
%%EndComments
%%BeginProlog
/bp  { gs sRGB gs } def
% begin .ps.prolog
/gs  { gsave } bind def
/gr  { grestore } bind def
/ep  { showpage gr gr } bind def
/m   { moveto } bind def
/l  { rlineto } bind def
/np  { newpath } bind def
/cp  { closepath } bind def
/f   { fill } bind def
/o   { stroke } bind def
/c   { newpath 0 360 arc } bind def
/r   { 4 2 roll moveto 1 copy 3 -1 roll exch 0 exch rlineto 0 rlineto -1 mul 0 exch rlineto closepath } bind def
/p1  { stroke } bind def
/p2  { gsave bg fill grestore newpath } bind def
/p3  { gsave bg fill grestore stroke } bind def
/p6  { gsave bg eofill grestore newpath } bind def
/p7  { gsave bg eofill grestore stroke } bind def
/t   { 5 -2 roll moveto gsave rotate
       1 index stringwidth pop
       mul neg 0 rmoveto show grestore } bind def
/ta  { 4 -2 roll moveto gsave rotate show } bind def
/tb  { 2 -1 roll 0 rmoveto show } bind def
/cl  { grestore gsave newpath 3 index 3 index moveto 1 index
       4 -1 roll lineto  exch 1 index lineto lineto
       closepath clip newpath } bind def
/rgb { setrgbcolor } bind def
/s   { scalefont setfont } bind def
% end   .ps.prolog
/sRGB { [ /CIEBasedABC
          << /DecodeLMN
               [ { dup 0.03928 le
                        {12.92321 div}
                        {0.055 add 1.055 div 2.4 exp }
                     ifelse
                 } bind dup dup
               ]
             /MatrixLMN [0.412457 0.212673 0.019334
                         0.357576 0.715152 0.119192
                         0.180437 0.072175 0.950301]
             /WhitePoint [0.9505 1.0 1.0890]
           >>
         ] setcolorspace } bind def
/srgb { setcolor } bind def
%%IncludeResource: font Helvetica
/Helvetica findfont
dup length dict begin
  {1 index /FID ne {def} {pop pop} ifelse} forall
  /Encoding ISOLatin1Encoding def
  currentdict
  end
/Font1 exch definefont pop
%%IncludeResource: font Helvetica-Bold
/Helvetica-Bold findfont
dup length dict begin
  {1 index /FID ne {def} {pop pop} ifelse} forall
  /Encoding ISOLatin1Encoding def
  currentdict
  end
/Font2 exch definefont pop
%%IncludeResource: font Helvetica-Oblique
/Helvetica-Oblique findfont
dup length dict begin
  {1 index /FID ne {def} {pop pop} ifelse} forall
  /Encoding ISOLatin1Encoding def
  currentdict
  end
/Font3 exch definefont pop
%%IncludeResource: font Helvetica-BoldOblique
/Helvetica-BoldOblique findfont
dup length dict begin
  {1 index /FID ne {def} {pop pop} ifelse} forall
  /Encoding ISOLatin1Encoding def
  currentdict
  end
/Font4 exch definefont pop
%%IncludeResource: font Symbol
/Symbol findfont
dup length dict begin
  {1 index /FID ne {def} {pop pop} ifelse} forall
  currentdict
  end
/Font5 exch definefont pop
%%EndProlog
%%Page: 1 1
bp
18.00 180.00 594.00 612.00 cl
/bg { 0.7451 0.7451 0.7451 srgb } def
0 0 0 srgb
0.08 setlinewidth
[] 0 setdash
1 setlinecap
1 setlinejoin
10.00 setmiterlimit
95.07 256.41 15.12 296.55 r p3
113.21 256.41 15.12 274.09 r p3
131.36 256.41 15.12 101.35 r p3
149.51 256.41 15.12 58.91 r p3
167.66 256.41 15.12 57.41 r p3
185.80 256.41 15.12 53.42 r p3
203.95 256.41 15.12 44.43 r p3
222.10 256.41 15.12 20.47 r p3
240.25 256.41 15.12 13.98 r p3
258.40 256.41 15.12 10.48 r p3
276.54 256.41 15.12 7.99 r p3
294.69 256.41 15.12 7.99 r p3
312.84 256.41 15.12 7.49 r p3
330.99 256.41 15.12 3.00 r p3
349.13 256.41 15.12 3.00 r p3
367.28 256.41 15.12 3.00 r p3
385.43 256.41 15.12 2.50 r p3
403.58 256.41 15.12 2.00 r p3
421.72 256.41 15.12 2.00 r p3
439.87 256.41 15.12 1.50 r p3
458.02 256.41 15.12 1.00 r p3
476.17 256.41 15.12 1.00 r p3
494.31 256.41 15.12 0.50 r p3
512.46 256.41 15.12 0.50 r p3
530.61 256.41 15.12 0.50 r p3
/Font2 findfont 14 s
179.38 577.45 (lxmds11 function call distrib) 0 ta
-0.280 (ution 02-2013) tb gr
/Font1 findfont 12 s
30.96 363.85 (abs) 90 ta
-0.180 (. frequency) tb gr
/Font1 findfont 18 s
99.40 370.10 (lo) -90.00 ta
-0.270 (v_find_pool) tb gr
117.54 253.44 (target_handle_reconnect) 1.10 -90.00 t
135.69 253.44 (target_send_reply_msg) 1.10 -90.00 t
153.84 453.76 (lo) -90.00 ta
-0.270 (v_update_create_set) tb gr
171.99 462.55 (upcall_cache_get_entr) -90.00 ta
0.540 (y) tb gr
190.14 253.44 (mds_close) 1.10 -90.00 t
208.28 253.44 (mds_handle) 1.10 -90.00 t
226.43 253.44 (target_handle_connect) 1.10 -90.00 t
244.58 404.20 (ptlr) -90.00 ta
0.540 (pc_check_req) tb gr
262.73 487.85 (ptlr) -90.00 ta
0.540 (pc_e) tb
-0.540 (xpire_one_request) tb gr
280.87 431.72 (kib) -90.00 ta
-0.360 (lnd_check_conns) tb gr
299.02 404.20 (kib) -90.00 ta
-0.360 (lnd_check_txs) tb gr
317.17 253.44 (mds_sendpage) 1.10 -90.00 t
335.32 253.44 (ldlm_lock_put) 1.10 -90.00 t
353.46 491.14 (ptlr) -90.00 ta
0.540 (pc_at_send_ear) tb
0.270 (ly_reply) tb gr
371.61 453.70 (w) -90.00 ta
-0.270 (aiting_locks_callback) tb gr
389.76 425.11 (mds_finish_tr) -90.00 ta
-0.180 (ansno) tb gr
407.91 253.44 (ldlm_handle_enqueue) 1.10 -90.00 t
426.05 438.31 (mds_quota_reco) -90.00 ta
-0.270 (v) tb
-0.450 (er) tb
0.540 (y) tb gr
444.20 482.35 (llog_or) -90.00 ta
0.270 (igin_handle_cancel) tb gr
462.35 253.44 (mds_commit_cb) 1.10 -90.00 t
480.50 515.35 (ptlr) -90.00 ta
0.540 (pc_ser) tb
0.540 (v) tb
-0.450 (er_handle_request) tb gr
498.65 253.44 (ldlm_handle_ast_error) 1.10 -90.00 t
516.79 455.93 (lnet_peer_aliv) -90.00 ta
-0.450 (e_lock) tb
-0.360 (ed) tb gr
534.94 253.44 (mgs_handle) 1.10 -90.00 t
18.00 180.00 594.00 612.00 cl
0 0 0 srgb
0.75 setlinewidth
[] 0 setdash
1 setlinecap
1 setlinejoin
10.00 setmiterlimit
np
77.04 256.41 m
0 249.62 l
o
np
77.04 256.41 m
-7.20 0 l
o
np
77.04 306.33 m
-7.20 0 l
o
np
77.04 356.26 m
-7.20 0 l
o
np
77.04 406.18 m
-7.20 0 l
o
np
77.04 456.11 m
-7.20 0 l
o
np
77.04 506.03 m
-7.20 0 l
o
/Font1 findfont 12 s
59.76 256.41 (0) .5 90 t
59.76 306.33 (100) .5 90 t
59.76 356.26 (200) .5 90 t
59.76 406.18 (300) .5 90 t
59.76 456.11 (400) .5 90 t
59.76 506.03 (500) .5 90 t
ep
%%Trailer
%%Pages: 1
%%EOF
