%!PS-Adobe-3.0
%%DocumentNeededResources: font Helvetica
%%+ font Helvetica-Bold
%%+ font Helvetica-Oblique
%%+ font Helvetica-BoldOblique
%%+ font Symbol
%%DocumentMedia: letter 612 792 0 () ()
%%Title: R Graphics Output
%%Creator: R Software
%%Pages: (atend)
%%Orientation: Portrait
%%BoundingBox: 18 180 594 612
%%EndComments
%%BeginProlog
/bp  { gs sRGB gs } def
% begin .ps.prolog
/gs  { gsave } bind def
/gr  { grestore } bind def
/ep  { showpage gr gr } bind def
/m   { moveto } bind def
/l  { rlineto } bind def
/np  { newpath } bind def
/cp  { closepath } bind def
/f   { fill } bind def
/o   { stroke } bind def
/c   { newpath 0 360 arc } bind def
/r   { 4 2 roll moveto 1 copy 3 -1 roll exch 0 exch rlineto 0 rlineto -1 mul 0 exch rlineto closepath } bind def
/p1  { stroke } bind def
/p2  { gsave bg fill grestore newpath } bind def
/p3  { gsave bg fill grestore stroke } bind def
/p6  { gsave bg eofill grestore newpath } bind def
/p7  { gsave bg eofill grestore stroke } bind def
/t   { 5 -2 roll moveto gsave rotate
       1 index stringwidth pop
       mul neg 0 rmoveto show grestore } bind def
/ta  { 4 -2 roll moveto gsave rotate show } bind def
/tb  { 2 -1 roll 0 rmoveto show } bind def
/cl  { grestore gsave newpath 3 index 3 index moveto 1 index
       4 -1 roll lineto  exch 1 index lineto lineto
       closepath clip newpath } bind def
/rgb { setrgbcolor } bind def
/s   { scalefont setfont } bind def
% end   .ps.prolog
/sRGB { [ /CIEBasedABC
          << /DecodeLMN
               [ { dup 0.03928 le
                        {12.92321 div}
                        {0.055 add 1.055 div 2.4 exp }
                     ifelse
                 } bind dup dup
               ]
             /MatrixLMN [0.412457 0.212673 0.019334
                         0.357576 0.715152 0.119192
                         0.180437 0.072175 0.950301]
             /WhitePoint [0.9505 1.0 1.0890]
           >>
         ] setcolorspace } bind def
/srgb { setcolor } bind def
%%IncludeResource: font Helvetica
/Helvetica findfont
dup length dict begin
  {1 index /FID ne {def} {pop pop} ifelse} forall
  /Encoding ISOLatin1Encoding def
  currentdict
  end
/Font1 exch definefont pop
%%IncludeResource: font Helvetica-Bold
/Helvetica-Bold findfont
dup length dict begin
  {1 index /FID ne {def} {pop pop} ifelse} forall
  /Encoding ISOLatin1Encoding def
  currentdict
  end
/Font2 exch definefont pop
%%IncludeResource: font Helvetica-Oblique
/Helvetica-Oblique findfont
dup length dict begin
  {1 index /FID ne {def} {pop pop} ifelse} forall
  /Encoding ISOLatin1Encoding def
  currentdict
  end
/Font3 exch definefont pop
%%IncludeResource: font Helvetica-BoldOblique
/Helvetica-BoldOblique findfont
dup length dict begin
  {1 index /FID ne {def} {pop pop} ifelse} forall
  /Encoding ISOLatin1Encoding def
  currentdict
  end
/Font4 exch definefont pop
%%IncludeResource: font Symbol
/Symbol findfont
dup length dict begin
  {1 index /FID ne {def} {pop pop} ifelse} forall
  currentdict
  end
/Font5 exch definefont pop
%%EndProlog
%%Page: 1 1
bp
18.00 180.00 594.00 612.00 cl
/bg { 0.7451 0.7451 0.7451 srgb } def
0 0 0 srgb
0.08 setlinewidth
[] 0 setdash
1 setlinecap
1 setlinejoin
10.00 setmiterlimit
95.07 256.41 16.45 296.55 r p3
114.80 256.41 16.45 209.08 r p3
134.54 256.41 16.45 201.22 r p3
154.28 256.41 16.45 88.98 r p3
174.02 256.41 16.45 45.83 r p3
193.75 256.41 16.45 23.25 r p3
213.49 256.41 16.45 15.22 r p3
233.23 256.41 16.45 10.87 r p3
252.96 256.41 16.45 6.86 r p3
272.70 256.41 16.45 6.19 r p3
292.44 256.41 16.45 5.52 r p3
312.18 256.41 16.45 5.02 r p3
331.91 256.41 16.45 4.01 r p3
351.65 256.41 16.45 3.68 r p3
371.39 256.41 16.45 3.01 r p3
391.13 256.41 16.45 2.34 r p3
410.86 256.41 16.45 2.01 r p3
430.60 256.41 16.45 2.01 r p3
450.34 256.41 16.45 1.34 r p3
470.07 256.41 16.45 0.84 r p3
489.81 256.41 16.45 0.84 r p3
509.55 256.41 16.45 0.50 r p3
529.29 256.41 16.45 0.33 r p3
/Font2 findfont 14 s
179.38 577.45 (lxmds11 function call distrib) 0 ta
-0.280 (ution 10-2013) tb gr
/Font1 findfont 12 s
30.96 363.85 (abs) 90 ta
-0.180 (. frequency) tb gr
/Font1 findfont 18 s
100.06 253.44 (target_handle_reconnect) 1.10 -90.00 t
119.80 253.44 (target_send_reply_msg) 1.10 -90.00 t
139.53 253.44 (mds_close) 1.10 -90.00 t
159.27 370.10 (lo) -90.00 ta
-0.270 (v_find_pool) tb gr
179.01 404.20 (ptlr) -90.00 ta
0.540 (pc_check_req) tb gr
198.75 253.44 (target_handle_connect) 1.10 -90.00 t
218.48 253.44 (ldlm_handle_enqueue) 1.10 -90.00 t
238.22 453.70 (w) -90.00 ta
-0.270 (aiting_locks_callback) tb gr
257.96 403.11 (kib) -90.00 ta
-0.360 (lnd_handle_rx) tb gr
277.69 515.35 (ptlr) -90.00 ta
0.540 (pc_ser) tb
0.540 (v) tb
-0.450 (er_handle_request) tb gr
297.43 253.44 (mds_handle) 1.10 -90.00 t
317.17 518.62 (ldlm_e) -90.00 ta
-0.540 (xpired_completion_w) tb
-0.270 (ait) tb gr
336.91 465.80 (qmaster_reco) -90.00 ta
-0.270 (v) tb
-0.450 (er) tb
0.540 (y_main) tb gr
356.64 453.76 (lo) -90.00 ta
-0.270 (v_update_create_set) tb gr
376.38 487.85 (ptlr) -90.00 ta
0.540 (pc_e) tb
-0.540 (xpire_one_request) tb gr
396.12 465.81 (ptlr) -90.00 ta
0.540 (pc_impor) tb
0.720 (t_dela) tb
-0.540 (y_req) tb gr
415.86 253.44 (ldlm_handle_ast_error) 1.10 -90.00 t
435.59 425.11 (mds_finish_tr) -90.00 ta
-0.180 (ansno) tb gr
455.33 253.44 (mgs_handle) 1.10 -90.00 t
475.07 253.44 (ldlm_cancel_handler) 1.10 -90.00 t
494.80 482.35 (llog_or) -90.00 ta
0.270 (igin_handle_cancel) tb gr
514.54 491.14 (ptlr) -90.00 ta
0.540 (pc_at_send_ear) tb
0.270 (ly_reply) tb gr
534.28 253.44 (mds_sendpage) 1.10 -90.00 t
18.00 180.00 594.00 612.00 cl
0 0 0 srgb
0.75 setlinewidth
[] 0 setdash
1 setlinecap
1 setlinejoin
10.00 setmiterlimit
np
77.04 256.41 m
0 250.89 l
o
np
77.04 256.41 m
-7.20 0 l
o
np
77.04 340.04 m
-7.20 0 l
o
np
77.04 423.67 m
-7.20 0 l
o
np
77.04 507.30 m
-7.20 0 l
o
/Font1 findfont 12 s
59.76 256.41 (0) .5 90 t
59.76 340.04 (500) .5 90 t
59.76 423.67 (1000) .5 90 t
59.76 507.30 (1500) .5 90 t
ep
%%Trailer
%%Pages: 1
%%EOF
