%!PS-Adobe-3.0
%%DocumentNeededResources: font Helvetica
%%+ font Helvetica-Bold
%%+ font Helvetica-Oblique
%%+ font Helvetica-BoldOblique
%%+ font Symbol
%%DocumentMedia: letter 612 792 0 () ()
%%Title: R Graphics Output
%%Creator: R Software
%%Pages: (atend)
%%Orientation: Portrait
%%BoundingBox: 18 180 594 612
%%EndComments
%%BeginProlog
/bp  { gs sRGB gs } def
% begin .ps.prolog
/gs  { gsave } bind def
/gr  { grestore } bind def
/ep  { showpage gr gr } bind def
/m   { moveto } bind def
/l  { rlineto } bind def
/np  { newpath } bind def
/cp  { closepath } bind def
/f   { fill } bind def
/o   { stroke } bind def
/c   { newpath 0 360 arc } bind def
/r   { 4 2 roll moveto 1 copy 3 -1 roll exch 0 exch rlineto 0 rlineto -1 mul 0 exch rlineto closepath } bind def
/p1  { stroke } bind def
/p2  { gsave bg fill grestore newpath } bind def
/p3  { gsave bg fill grestore stroke } bind def
/p6  { gsave bg eofill grestore newpath } bind def
/p7  { gsave bg eofill grestore stroke } bind def
/t   { 5 -2 roll moveto gsave rotate
       1 index stringwidth pop
       mul neg 0 rmoveto show grestore } bind def
/ta  { 4 -2 roll moveto gsave rotate show } bind def
/tb  { 2 -1 roll 0 rmoveto show } bind def
/cl  { grestore gsave newpath 3 index 3 index moveto 1 index
       4 -1 roll lineto  exch 1 index lineto lineto
       closepath clip newpath } bind def
/rgb { setrgbcolor } bind def
/s   { scalefont setfont } bind def
% end   .ps.prolog
/sRGB { [ /CIEBasedABC
          << /DecodeLMN
               [ { dup 0.03928 le
                        {12.92321 div}
                        {0.055 add 1.055 div 2.4 exp }
                     ifelse
                 } bind dup dup
               ]
             /MatrixLMN [0.412457 0.212673 0.019334
                         0.357576 0.715152 0.119192
                         0.180437 0.072175 0.950301]
             /WhitePoint [0.9505 1.0 1.0890]
           >>
         ] setcolorspace } bind def
/srgb { setcolor } bind def
%%IncludeResource: font Helvetica
/Helvetica findfont
dup length dict begin
  {1 index /FID ne {def} {pop pop} ifelse} forall
  /Encoding ISOLatin1Encoding def
  currentdict
  end
/Font1 exch definefont pop
%%IncludeResource: font Helvetica-Bold
/Helvetica-Bold findfont
dup length dict begin
  {1 index /FID ne {def} {pop pop} ifelse} forall
  /Encoding ISOLatin1Encoding def
  currentdict
  end
/Font2 exch definefont pop
%%IncludeResource: font Helvetica-Oblique
/Helvetica-Oblique findfont
dup length dict begin
  {1 index /FID ne {def} {pop pop} ifelse} forall
  /Encoding ISOLatin1Encoding def
  currentdict
  end
/Font3 exch definefont pop
%%IncludeResource: font Helvetica-BoldOblique
/Helvetica-BoldOblique findfont
dup length dict begin
  {1 index /FID ne {def} {pop pop} ifelse} forall
  /Encoding ISOLatin1Encoding def
  currentdict
  end
/Font4 exch definefont pop
%%IncludeResource: font Symbol
/Symbol findfont
dup length dict begin
  {1 index /FID ne {def} {pop pop} ifelse} forall
  currentdict
  end
/Font5 exch definefont pop
%%EndProlog
%%Page: 1 1
bp
18.00 180.00 594.00 612.00 cl
/bg { 0.7451 0.7451 0.7451 srgb } def
0 0 0 srgb
0.08 setlinewidth
[] 0 setdash
1 setlinecap
1 setlinejoin
10.00 setmiterlimit
95.07 256.41 10.48 296.55 r p3
107.64 256.41 10.48 93.34 r p3
120.22 256.41 10.48 69.01 r p3
132.80 256.41 10.48 56.66 r p3
145.37 256.41 10.48 46.13 r p3
157.95 256.41 10.48 26.15 r p3
170.53 256.41 10.48 19.25 r p3
183.10 256.41 10.48 18.34 r p3
195.68 256.41 10.48 9.62 r p3
208.26 256.41 10.48 7.63 r p3
220.83 256.41 10.48 4.72 r p3
233.41 256.41 10.48 3.81 r p3
245.99 256.41 10.48 3.09 r p3
258.56 256.41 10.48 2.54 r p3
271.14 256.41 10.48 2.54 r p3
283.72 256.41 10.48 2.36 r p3
296.29 256.41 10.48 2.36 r p3
308.87 256.41 10.48 2.18 r p3
321.45 256.41 10.48 2.00 r p3
334.02 256.41 10.48 1.45 r p3
346.60 256.41 10.48 1.09 r p3
359.18 256.41 10.48 1.09 r p3
371.76 256.41 10.48 0.91 r p3
384.33 256.41 10.48 0.73 r p3
396.91 256.41 10.48 0.73 r p3
409.49 256.41 10.48 0.54 r p3
422.06 256.41 10.48 0.54 r p3
434.64 256.41 10.48 0.36 r p3
447.22 256.41 10.48 0.36 r p3
459.79 256.41 10.48 0.18 r p3
472.37 256.41 10.48 0.18 r p3
484.95 256.41 10.48 0.18 r p3
497.52 256.41 10.48 0.18 r p3
510.10 256.41 10.48 0.18 r p3
522.68 256.41 10.48 0.18 r p3
535.25 256.41 10.48 0.18 r p3
/Font2 findfont 14 s
179.38 577.45 (lxmds11 function call distrib) 0 ta
-0.280 (ution 06-2013) tb gr
/Font1 findfont 12 s
30.96 363.85 (abs) 90 ta
-0.180 (. frequency) tb gr
/Font1 findfont 18 s
97.08 477.93 (impor) -90.00 ta
0.720 (t_select_connection) tb gr
109.65 253.44 (target_handle_reconnect) 1.10 -90.00 t
122.23 370.10 (lo) -90.00 ta
-0.270 (v_find_pool) tb gr
134.81 253.44 (target_send_reply_msg) 1.10 -90.00 t
147.38 253.44 (mds_close) 1.10 -90.00 t
159.96 487.85 (ptlr) -90.00 ta
0.540 (pc_e) tb
-0.540 (xpire_one_request) tb gr
172.54 404.20 (ptlr) -90.00 ta
0.540 (pc_check_req) tb gr
185.11 462.55 (upcall_cache_get_entr) -90.00 ta
0.540 (y) tb gr
197.69 253.44 (target_handle_connect) 1.10 -90.00 t
210.27 438.31 (mds_quota_reco) -90.00 ta
-0.270 (v) tb
-0.450 (er) tb
0.540 (y) tb gr
222.84 253.44 (mds_notify) 1.10 -90.00 t
235.42 253.44 (mds_handle) 1.10 -90.00 t
248.00 453.70 (w) -90.00 ta
-0.270 (aiting_locks_callback) tb gr
260.57 253.44 (ldlm_handle_ast_error) 1.10 -90.00 t
273.15 253.44 (mgs_handle) 1.10 -90.00 t
285.73 491.14 (ptlr) -90.00 ta
0.540 (pc_at_send_ear) tb
0.270 (ly_reply) tb gr
298.30 465.81 (ptlr) -90.00 ta
0.540 (pc_impor) tb
0.720 (t_dela) tb
-0.540 (y_req) tb gr
310.88 515.35 (ptlr) -90.00 ta
0.540 (pc_ser) tb
0.540 (v) tb
-0.450 (er_handle_request) tb gr
323.46 253.44 (ldlm_handle_enqueue) 1.10 -90.00 t
336.03 518.62 (ldlm_e) -90.00 ta
-0.540 (xpired_completion_w) tb
-0.270 (ait) tb gr
348.61 253.44 (ldlm_cancel_handler) 1.10 -90.00 t
361.19 425.11 (mds_finish_tr) -90.00 ta
-0.180 (ansno) tb gr
373.76 403.11 (kib) -90.00 ta
-0.360 (lnd_handle_rx) tb gr
386.34 431.72 (kib) -90.00 ta
-0.360 (lnd_check_conns) tb gr
398.92 404.20 (kib) -90.00 ta
-0.360 (lnd_check_txs) tb gr
411.49 386.60 (kib) -90.00 ta
-0.360 (lnd_rejected) tb gr
424.07 453.76 (lo) -90.00 ta
-0.270 (v_update_create_set) tb gr
436.65 482.35 (llog_or) -90.00 ta
0.270 (igin_handle_cancel) tb gr
449.22 253.44 (mds_sendpage) 1.10 -90.00 t
461.80 253.44 (ldlm_cli_cancel_list) 1.10 -90.00 t
474.38 253.44 (ldlm_cli_cancel_req) 1.10 -90.00 t
486.96 253.44 (lustre_fill_super) 1.10 -90.00 t
499.53 473.52 (ser) -90.00 ta
0.540 (v) tb
-0.450 (er_deregister_mount) tb gr
512.11 398.67 (ser) -90.00 ta
0.540 (v) tb
-0.450 (er_fill_super) tb gr
524.69 407.50 (ser) -90.00 ta
0.540 (v) tb
-0.450 (er_put_super) tb gr
537.26 429.50 (ser) -90.00 ta
0.540 (v) tb
-0.450 (er_star) tb
0.720 (t_targets) tb gr
18.00 180.00 594.00 612.00 cl
0 0 0 srgb
0.75 setlinewidth
[] 0 setdash
1 setlinecap
1 setlinejoin
10.00 setmiterlimit
np
77.04 256.41 m
0 272.40 l
o
np
77.04 256.41 m
-7.20 0 l
o
np
77.04 347.21 m
-7.20 0 l
o
np
77.04 438.01 m
-7.20 0 l
o
np
77.04 528.81 m
-7.20 0 l
o
/Font1 findfont 12 s
59.76 256.41 (0) .5 90 t
59.76 347.21 (500) .5 90 t
59.76 438.01 (1000) .5 90 t
59.76 528.81 (1500) .5 90 t
ep
%%Trailer
%%Pages: 1
%%EOF
