%!PS-Adobe-3.0
%%DocumentNeededResources: font Helvetica
%%+ font Helvetica-Bold
%%+ font Helvetica-Oblique
%%+ font Helvetica-BoldOblique
%%+ font Symbol
%%DocumentMedia: letter 612 792 0 () ()
%%Title: R Graphics Output
%%Creator: R Software
%%Pages: (atend)
%%Orientation: Portrait
%%BoundingBox: 18 180 594 612
%%EndComments
%%BeginProlog
/bp  { gs sRGB gs } def
% begin .ps.prolog
/gs  { gsave } bind def
/gr  { grestore } bind def
/ep  { showpage gr gr } bind def
/m   { moveto } bind def
/l  { rlineto } bind def
/np  { newpath } bind def
/cp  { closepath } bind def
/f   { fill } bind def
/o   { stroke } bind def
/c   { newpath 0 360 arc } bind def
/r   { 4 2 roll moveto 1 copy 3 -1 roll exch 0 exch rlineto 0 rlineto -1 mul 0 exch rlineto closepath } bind def
/p1  { stroke } bind def
/p2  { gsave bg fill grestore newpath } bind def
/p3  { gsave bg fill grestore stroke } bind def
/p6  { gsave bg eofill grestore newpath } bind def
/p7  { gsave bg eofill grestore stroke } bind def
/t   { 5 -2 roll moveto gsave rotate
       1 index stringwidth pop
       mul neg 0 rmoveto show grestore } bind def
/ta  { 4 -2 roll moveto gsave rotate show } bind def
/tb  { 2 -1 roll 0 rmoveto show } bind def
/cl  { grestore gsave newpath 3 index 3 index moveto 1 index
       4 -1 roll lineto  exch 1 index lineto lineto
       closepath clip newpath } bind def
/rgb { setrgbcolor } bind def
/s   { scalefont setfont } bind def
% end   .ps.prolog
/sRGB { [ /CIEBasedABC
          << /DecodeLMN
               [ { dup 0.03928 le
                        {12.92321 div}
                        {0.055 add 1.055 div 2.4 exp }
                     ifelse
                 } bind dup dup
               ]
             /MatrixLMN [0.412457 0.212673 0.019334
                         0.357576 0.715152 0.119192
                         0.180437 0.072175 0.950301]
             /WhitePoint [0.9505 1.0 1.0890]
           >>
         ] setcolorspace } bind def
/srgb { setcolor } bind def
%%IncludeResource: font Helvetica
/Helvetica findfont
dup length dict begin
  {1 index /FID ne {def} {pop pop} ifelse} forall
  /Encoding ISOLatin1Encoding def
  currentdict
  end
/Font1 exch definefont pop
%%IncludeResource: font Helvetica-Bold
/Helvetica-Bold findfont
dup length dict begin
  {1 index /FID ne {def} {pop pop} ifelse} forall
  /Encoding ISOLatin1Encoding def
  currentdict
  end
/Font2 exch definefont pop
%%IncludeResource: font Helvetica-Oblique
/Helvetica-Oblique findfont
dup length dict begin
  {1 index /FID ne {def} {pop pop} ifelse} forall
  /Encoding ISOLatin1Encoding def
  currentdict
  end
/Font3 exch definefont pop
%%IncludeResource: font Helvetica-BoldOblique
/Helvetica-BoldOblique findfont
dup length dict begin
  {1 index /FID ne {def} {pop pop} ifelse} forall
  /Encoding ISOLatin1Encoding def
  currentdict
  end
/Font4 exch definefont pop
%%IncludeResource: font Symbol
/Symbol findfont
dup length dict begin
  {1 index /FID ne {def} {pop pop} ifelse} forall
  currentdict
  end
/Font5 exch definefont pop
%%EndProlog
%%Page: 1 1
bp
18.00 180.00 594.00 612.00 cl
/bg { 0.7451 0.7451 0.7451 srgb } def
0 0 0 srgb
0.08 setlinewidth
[] 0 setdash
1 setlinecap
1 setlinejoin
10.00 setmiterlimit
95.07 256.41 11.44 296.55 r p3
108.79 256.41 11.44 95.72 r p3
122.52 256.41 11.44 34.34 r p3
136.24 256.41 11.44 31.25 r p3
149.97 256.41 11.44 29.99 r p3
163.70 256.41 11.44 14.72 r p3
177.42 256.41 11.44 10.09 r p3
191.15 256.41 11.44 8.69 r p3
204.87 256.41 11.44 5.47 r p3
218.60 256.41 11.44 3.92 r p3
232.33 256.41 11.44 2.10 r p3
246.05 256.41 11.44 1.96 r p3
259.78 256.41 11.44 1.68 r p3
273.50 256.41 11.44 1.40 r p3
287.23 256.41 11.44 1.26 r p3
300.95 256.41 11.44 1.12 r p3
314.68 256.41 11.44 0.70 r p3
328.41 256.41 11.44 0.70 r p3
342.13 256.41 11.44 0.56 r p3
355.86 256.41 11.44 0.56 r p3
369.58 256.41 11.44 0.42 r p3
383.31 256.41 11.44 0.42 r p3
397.04 256.41 11.44 0.42 r p3
410.76 256.41 11.44 0.28 r p3
424.49 256.41 11.44 0.28 r p3
438.21 256.41 11.44 0.28 r p3
451.94 256.41 11.44 0.14 r p3
465.67 256.41 11.44 0.14 r p3
479.39 256.41 11.44 0.14 r p3
493.12 256.41 11.44 0.14 r p3
506.84 256.41 11.44 0.14 r p3
520.57 256.41 11.44 0.14 r p3
534.30 256.41 11.44 0.14 r p3
/Font2 findfont 14 s
179.38 577.45 (lxmds11 function call distrib) 0 ta
-0.280 (ution 05-2013) tb gr
/Font1 findfont 12 s
30.96 363.85 (abs) 90 ta
-0.180 (. frequency) tb gr
/Font1 findfont 18 s
97.55 253.44 (target_handle_reconnect) 1.10 -90.00 t
111.28 477.93 (impor) -90.00 ta
0.720 (t_select_connection) tb gr
125.01 462.55 (upcall_cache_get_entr) -90.00 ta
0.540 (y) tb gr
138.73 370.10 (lo) -90.00 ta
-0.270 (v_find_pool) tb gr
152.46 487.85 (ptlr) -90.00 ta
0.540 (pc_e) tb
-0.540 (xpire_one_request) tb gr
166.18 253.44 (target_send_reply_msg) 1.10 -90.00 t
179.91 253.44 (mds_close) 1.10 -90.00 t
193.64 404.20 (ptlr) -90.00 ta
0.540 (pc_check_req) tb gr
207.36 253.44 (target_handle_connect) 1.10 -90.00 t
221.09 438.31 (mds_quota_reco) -90.00 ta
-0.270 (v) tb
-0.450 (er) tb
0.540 (y) tb gr
234.81 491.14 (ptlr) -90.00 ta
0.540 (pc_at_send_ear) tb
0.270 (ly_reply) tb gr
248.54 495.53 (ptlr) -90.00 ta
0.540 (pc_ser) tb
0.540 (v) tb
-0.450 (er_drop_request) tb gr
262.27 453.76 (lo) -90.00 ta
-0.270 (v_update_create_set) tb gr
275.99 253.44 (mds_handle) 1.10 -90.00 t
289.72 515.35 (ptlr) -90.00 ta
0.540 (pc_ser) tb
0.540 (v) tb
-0.450 (er_handle_request) tb gr
303.44 253.44 (ldlm_lock_put) 1.10 -90.00 t
317.17 425.11 (mds_finish_tr) -90.00 ta
-0.180 (ansno) tb gr
330.89 253.44 (mds_sendpage) 1.10 -90.00 t
344.62 253.44 (ldlm_handle_ast_error) 1.10 -90.00 t
358.35 253.44 (mds_commit_cb) 1.10 -90.00 t
372.07 431.72 (kib) -90.00 ta
-0.360 (lnd_check_conns) tb gr
385.80 404.20 (kib) -90.00 ta
-0.360 (lnd_check_txs) tb gr
399.52 465.81 (__mds_lo) -90.00 ta
-0.270 (v_synchroniz) tb
-0.270 (e) tb gr
413.25 518.62 (ldlm_e) -90.00 ta
-0.540 (xpired_completion_w) tb
-0.270 (ait) tb gr
426.98 394.30 (ptlr) -90.00 ta
0.540 (pc_free_b) tb
-0.360 (ulk) tb gr
440.70 453.70 (w) -90.00 ta
-0.270 (aiting_locks_callback) tb gr
454.43 403.11 (kib) -90.00 ta
-0.360 (lnd_handle_rx) tb gr
468.15 482.35 (llog_or) -90.00 ta
0.270 (igin_handle_cancel) tb gr
481.88 415.21 (lo) -90.00 ta
-0.270 (v_clear_or) tb
0.540 (phans) tb gr
495.61 253.44 (mgs_handle) 1.10 -90.00 t
509.33 253.44 (osc_create) 1.10 -90.00 t
523.06 465.83 (ptlr) -90.00 ta
0.540 (pc_connect_inter) tb
0.540 (pret) tb gr
536.78 465.81 (ptlr) -90.00 ta
0.540 (pc_impor) tb
0.720 (t_dela) tb
-0.540 (y_req) tb gr
18.00 180.00 594.00 612.00 cl
0 0 0 srgb
0.75 setlinewidth
[] 0 setdash
1 setlinecap
1 setlinejoin
10.00 setmiterlimit
np
77.04 256.41 m
0 280.29 l
o
np
77.04 256.41 m
-7.20 0 l
o
np
77.04 326.48 m
-7.20 0 l
o
np
77.04 396.55 m
-7.20 0 l
o
np
77.04 466.63 m
-7.20 0 l
o
np
77.04 536.70 m
-7.20 0 l
o
/Font1 findfont 12 s
59.76 256.41 (0) .5 90 t
59.76 326.48 (500) .5 90 t
59.76 396.55 (1000) .5 90 t
59.76 466.63 (1500) .5 90 t
59.76 536.70 (2000) .5 90 t
ep
%%Trailer
%%Pages: 1
%%EOF
